[
  {
    "id": "1",
    "name": "Unholy collection",
    "brand": "Unholy",
    "price": 35000,
    "price_string": "35.000",
    "description": "Este producto esta hecho con mucho mucho amor",
    "image": "https://nicol655.gitlab.io/getpunkrock/images/product1.jpg",
    "image_gallery": [{"original":"https://nicol655.gitlab.io/getpunkrock/images/product1.jpg","thumbnail":"https://nicol655.gitlab.io/getpunkrock/images/product1.jpg"},{"original":"https://nicol655.gitlab.io/getpunkrock/images/product2.jpg", "thumbnail":"https://nicol655.gitlab.io/getpunkrock/images/product2.jpg"}, {"original":"https://nicol655.gitlab.io/getpunkrock/images/product1.jpg", "thumbnail":"https://nicol655.gitlab.io/getpunkrock/images/product1.jpg"}],
    "stock": 20,
    "size": ["u", "s", "m", "l"]
  },
  {
    "id": "2",
    "name": "Bloodempire collection",
    "brand": "BloodEmpire",
    "price": 90000,
    "price_string": "90.000",
    "description": "Este producto esta hecho con mucho mucho amor",
    "image": "https://nicol655.gitlab.io/getpunkrock/images/product2.jpg",
    "image_gallery": [{"original":"https://nicol655.gitlab.io/getpunkrock/images/product1.jpg","thumbnail":"https://nicol655.gitlab.io/getpunkrock/images/product1.jpg"},{"original":"https://nicol655.gitlab.io/getpunkrock/images/product2.jpg", "thumbnail":"https://nicol655.gitlab.io/getpunkrock/images/product2.jpg"}, {"original":"https://nicol655.gitlab.io/getpunkrock/images/product1.jpg", "thumbnail":"https://nicol655.gitlab.io/getpunkrock/images/product1.jpg"}],
    "stock": 20,
    "size": ["u", "s", "m", "l"]
  },
  {
    "id": "3",
    "name": "Carmina collection",
    "brand": "Carmina",
    "price": 76000,
    "price_string": "76.000",
    "description": "Este producto esta hecho con mucho mucho amor",
    "image": "https://nicol655.gitlab.io/getpunkrock/images/product1.jpg",
    "image_gallery": [{"original":"https://nicol655.gitlab.io/getpunkrock/images/product1.jpg","thumbnail":"https://nicol655.gitlab.io/getpunkrock/images/product1.jpg"},{"original":"https://nicol655.gitlab.io/getpunkrock/images/product2.jpg", "thumbnail":"https://nicol655.gitlab.io/getpunkrock/images/product2.jpg"}, {"original":"https://nicol655.gitlab.io/getpunkrock/images/product1.jpg", "thumbnail":"https://nicol655.gitlab.io/getpunkrock/images/product1.jpg"}],
    "stock": 20,
    "size": ["u", "s", "m", "l"]
  },
  {
    "id": "4",
    "name": "Unholy collection",
    "brand": "Unholy",
    "price": 35000,
    "price_string": "35.000",
    "description": "Este producto esta hecho con mucho mucho amor",
    "image": "https://nicol655.gitlab.io/getpunkrock/images/product1.jpg",
    "image_gallery": [{"original":"https://nicol655.gitlab.io/getpunkrock/images/product1.jpg","thumbnail":"https://nicol655.gitlab.io/getpunkrock/images/product1.jpg"},{"original":"https://nicol655.gitlab.io/getpunkrock/images/product2.jpg", "thumbnail":"https://nicol655.gitlab.io/getpunkrock/images/product2.jpg"}, {"original":"https://nicol655.gitlab.io/getpunkrock/images/product1.jpg", "thumbnail":"https://nicol655.gitlab.io/getpunkrock/images/product1.jpg"}],
    "stock": 20,
    "size": ["u", "s", "m", "l"]
  },
  {
    "id": "5",
    "name": "Unholy collection",
    "brand": "BloodEmpire",
    "price": 35000,
    "price_string": "35.000",
    "description": "Este producto esta hecho con mucho mucho amor",
    "image": "https://nicol655.gitlab.io/getpunkrock/images/product3.jpg",
    "image_gallery": [{"original":"https://nicol655.gitlab.io/getpunkrock/images/product1.jpg","thumbnail":"https://nicol655.gitlab.io/getpunkrock/images/product1.jpg"},{"original":"https://nicol655.gitlab.io/getpunkrock/images/product2.jpg", "thumbnail":"https://nicol655.gitlab.io/getpunkrock/images/product2.jpg"}, {"original":"https://nicol655.gitlab.io/getpunkrock/images/product1.jpg", "thumbnail":"https://nicol655.gitlab.io/getpunkrock/images/product1.jpg"}],
    "stock": 20,
    "size": ["u", "s", "m", "l"]
  },
  {
    "id": "16",
    "name": "Carmina collection",
    "brand": "Carmina",
    "price": 35000,
    "price_string": "35.000",
    "description": "Este producto esta hecho con mucho mucho amor",
    "image": "https://nicol655.gitlab.io/getpunkrock/images/product1.jpg",
    "image_gallery": [{"original":"https://nicol655.gitlab.io/getpunkrock/images/product1.jpg","thumbnail":"https://nicol655.gitlab.io/getpunkrock/images/product1.jpg"},{"original":"https://nicol655.gitlab.io/getpunkrock/images/product2.jpg", "thumbnail":"https://nicol655.gitlab.io/getpunkrock/images/product2.jpg"}, {"original":"https://nicol655.gitlab.io/getpunkrock/images/product1.jpg", "thumbnail":"https://nicol655.gitlab.io/getpunkrock/images/product1.jpg"}],
    "stock": 1,
    "size": ["u", "s", "m", "l"]
  },
  {
    "id": "17",
    "name": "BloodEmpire collection",
    "brand": "BloodEmpire",
    "price": 35000,
    "price_string": "35.000",
    "description": "Este producto esta hecho con mucho mucho amor",
    "image": "https://nicol655.gitlab.io/getpunkrock/images/product2.jpg",
    "image_gallery": [{"original":"https://nicol655.gitlab.io/getpunkrock/images/product1.jpg","thumbnail":"https://nicol655.gitlab.io/getpunkrock/images/product1.jpg"},{"original":"https://nicol655.gitlab.io/getpunkrock/images/product2.jpg", "thumbnail":"https://nicol655.gitlab.io/getpunkrock/images/product2.jpg"}, {"original":"https://nicol655.gitlab.io/getpunkrock/images/product1.jpg", "thumbnail":"https://nicol655.gitlab.io/getpunkrock/images/product1.jpg"}],
    "stock": 20,
    "size": ["u", "s", "m", "l"]
  },
  {
    "id": "12",
    "name": "BloodEmpire collection",
    "brand": "BloodEmpire",
    "price": 35000,
    "price_string": "35.000",
    "description": "Este producto esta hecho con mucho mucho amor",
    "image": "https://nicol655.gitlab.io/getpunkrock/images/product1.jpg",
    "image_gallery": [{"original":"https://nicol655.gitlab.io/getpunkrock/images/product1.jpg","thumbnail":"https://nicol655.gitlab.io/getpunkrock/images/product1.jpg"},{"original":"https://nicol655.gitlab.io/getpunkrock/images/product2.jpg", "thumbnail":"https://nicol655.gitlab.io/getpunkrock/images/product2.jpg"}, {"original":"https://nicol655.gitlab.io/getpunkrock/images/product1.jpg", "thumbnail":"https://nicol655.gitlab.io/getpunkrock/images/product1.jpg"}],
    "stock": 1,
    "size": ["u", "s", "m", "l"]
  }
]
