{
  "ES": {
    "header": {
      "options": [
        {
          "name": "Inicio",
          "pathname": "/"
        },
        {
          "name": "Tienda",
          "pathname": "/tienda"
        }
      ]
    },
    "footer": {}
  }
}